…
$ `FieldName (existing)`        [3m[38;5;246m<chr>[39m[23m "recordedBy", "recordedByID", NA, NA, "institutionID", "project_name", "project_id", NA, NA, "license", "ri…
$ URI                           [3m[38;5;246m<chr>[39m[23m "https://dwc.tdwg.org/list/#dwc_recordedBy", "https://dwc.tdwg.org/list/#dwc_recordedByID", NA, NA, "http:/…
$ `Description (existing)`      [3m[38;5;246m<chr>[39m[23m "A list (concatenated and separated) of names of people, groups, or organizations responsible for recording…
$ `Example (existing)`          [3m[38;5;246m<chr>[39m[23m "José E. Crespo", "https://orcid.org/0000-0002-1825-0097  |  https://orcid.org/0000-0002-1825-0098", NA, NA…
$ `NOAA Term`                   [3m[38;5;246m<chr>[39m[23m "same", "none", NA, "none", "none", "same", NA, NA, "none", "same", "none", "none", "none", "none", "citati…
$ requirement_level_code        [3m[38;5;246m<chr>[39m[23m "M", "R", "M", "R", "R", "R", "M", "O", "M", "R", "R", "R", "O", "O", "R", "O", "R", "M", "R", "R", "M", "M…
  [1] "M" "R" "M" "R" "R" "R" "M" "O" "M" "R" "R" "R" "O" "O" "R" "O" "R" "M" "R" "R" "M" "M" "M" "M" "O" "O" "O" "O" "M" "M" "O" "O" "O" "O" "O"
 [36] "O" "M" "M" "M" "R" "R" "R" "R" "R" "R" "R" "O" "O" "O" "R" "R" "O" "R" "O" "O" "O" "O" "R" "R" "R" "R" "R" "R" "O" "O" "M" "M" "R" "R" "O"
 [71] "O" "O" "R" "R" "O" "O" "R" "R" "R" "O" "O" "O" "O" "O" "R" "O" "M" "O" "O" "M" "R" "M" "R" "R" "O" "O" "M" "M" "O" "O" "R" "R" "O" "O" "O"
[106] "O" "R" "R" "R" "O" "O" "R" "R" "R" "R" "R" "O" "O" "O" "O" "R" "O" "M" "M" "R" "R" "M" "M" "R" "R" "R" "R" "M" "M" "R" "R" "R" "O" "R" "M"
[141] "O" "O" "O" "M" "M" "M" "O" "O" "R" "R" "R" "R" "M" "M" "M" "R" "M" "R" "R" "R" "R" "O" "R" "R" "O" "O" "O" "R" "R" "O" "R" "O" "O" "O" "O"
[176] "O" "O" "O" "O" "O" "O" "O" "O" "O" "O" "O" "O" "O" "O" "R" "O" "O" "O" "O" "O" "O" "O" "R" "O" "O" "O" "O" "R" "R" "R" "R" "M" "M" "O" "O"
[211] "O" "O" "O" "O" "O" "R" "R" "R" "R" "R" "O" "R" "R" "R" "R" "R" "O" "R" "R" "R" "O" "O" "O" "O" "O" "O" "O" "O" "O" "O" "O" "O" "O" "O" "O"
[246] "O" "O" "O" "O" "O" "O" "O" "O" "O" "O" "O" "O" "O" "O" "O" "O" "O" "O" "O" "O" "O" "O" "O" "O" "O" "O" "O" "O" "O" "O" "O" "O"
# A tibble: 277 × 33
   data_type   section field_name description requirement_level requirement_level_co…¹ field_type unit  fixed_format controlled_vocabular…² example
   <chr>       <chr>   <chr>      <chr>       <chr>             <chr>                  <chr>      <chr> <chr>        <chr>                  <chr>  
 1 studyMetad… Project recordedBy A list (co… Mandatory         <NA>                   free text  <NA>  <NA>         <NA>                   José E…
 2 studyMetad… Project recordedB… A list (co… Recommended       <NA>                   free text  <NA>  <NA>         <NA>                   https:…
 3 studyMetad… Project project_c… A contact … Mandatory         <NA>                   free text  <NA>  <NA>         <NA>                   <NA>   
 4 studyMetad… Project instituti… An institu… Recommended       <NA>                   free text  <NA>  <NA>         <NA>                   Curtin…
 5 studyMetad… Project instituti… An identif… Recommended       <NA>                   free text  <NA>  <NA>         <NA>                   http:/…
 6 studyMetad… Project project_n… Name of th… Recommended       <NA>                   free text  <NA>  <NA>         <NA>                   Forest…
 7 studyMetad… Project project_id A brief, c… Mandatory         <NA>                   free text  <NA>  <NA>         <NA>                   noaa-a…
 8 studyMetad… Project study_fac… The variab… Optional          <NA>                   free text  <NA>  <NA>         <NA>                   benthi…
 9 studyMetad… Project detection… Species de… Mandatory         <NA>                   controlle… <NA>  <NA>         targeted taxon detect… multi …
10 studyMetad… Data m… license    A legal do… Recommended       <NA>                   free text  <NA>  <NA>         <NA>                   http:/…
# ℹ 267 more rows
# ℹ abbreviated names: ¹​requirement_level_condition, ²​controlled_vocabulary_options
# ℹ 22 more variables: Comments <chr>, `New comments` <chr>, `MT comments` <chr>, new_comm_July24 <chr>, Water <chr>, Soil <chr>, Sediment <chr>,
#   Air <chr>, HostAssociated <chr>, MicrobialMatBiofilm <chr>, SymbiontAssociated <chr>, `INSDC requirement` <lgl>, `GBIF requirement` <lgl>,
#   source <chr>, `modifications made` <chr>, `Comments on modification` <chr>, `FieldName (existing)` <chr>, URI <chr>,
#   `Description (existing)` <chr>, `Example (existing)` <chr>, `NOAA Term` <chr>, requirement_level_code <chr>
# ℹ Use `print(n = ...)` to see more rows
# A tibble: 277 × 33
   data_type   section field_name description requirement_level requirement_level_co…¹ field_type unit  fixed_format controlled_vocabular…² example
   <chr>       <chr>   <chr>      <chr>       <chr>             <chr>                  <chr>      <chr> <chr>        <chr>                  <chr>  
 1 studyMetad… Project recordedBy A list (co… Mandatory         <NA>                   free text  <NA>  <NA>         <NA>                   José E…
 2 studyMetad… Project recordedB… A list (co… Recommended       <NA>                   free text  <NA>  <NA>         <NA>                   https:…
 3 studyMetad… Project project_c… A contact … Mandatory         <NA>                   free text  <NA>  <NA>         <NA>                   <NA>   
 4 studyMetad… Project instituti… An institu… Recommended       <NA>                   free text  <NA>  <NA>         <NA>                   Curtin…
 5 studyMetad… Project instituti… An identif… Recommended       <NA>                   free text  <NA>  <NA>         <NA>                   http:/…
 6 studyMetad… Project project_n… Name of th… Recommended       <NA>                   free text  <NA>  <NA>         <NA>                   Forest…
 7 studyMetad… Project project_id A brief, c… Mandatory         <NA>                   free text  <NA>  <NA>         <NA>                   noaa-a…
 8 studyMetad… Project study_fac… The variab… Optional          <NA>                   free text  <NA>  <NA>         <NA>                   benthi…
 9 studyMetad… Project detection… Species de… Mandatory         <NA>                   controlle… <NA>  <NA>         targeted taxon detect… multi …
10 studyMetad… Data m… license    A legal do… Recommended       <NA>                   free text  <NA>  <NA>         <NA>                   http:/…
# ℹ 267 more rows
# ℹ abbreviated names: ¹​requirement_level_condition, ²​controlled_vocabulary_options
# ℹ 22 more variables: Comments <chr>, `New comments` <chr>, `MT comments` <chr>, new_comm_July24 <chr>, Water <chr>, Soil <chr>, Sediment <chr>,
#   Air <chr>, HostAssociated <chr>, MicrobialMatBiofilm <chr>, SymbiontAssociated <chr>, `INSDC requirement` <lgl>, `GBIF requirement` <lgl>,
#   source <chr>, `modifications made` <chr>, `Comments on modification` <chr>, `FieldName (existing)` <chr>, URI <chr>,
#   `Description (existing)` <chr>, `Example (existing)` <chr>, `NOAA Term` <chr>, requirement_level_code <chr>
# ℹ Use `print(n = ...)` to see more rows
